%YAML 1.1
%TAG !u! tag:unity3d.com,2011:
--- !u!114 &11400000
MonoBehaviour:
  m_ObjectHideFlags: 0
  m_PrefabParentObject: {fileID: 0}
  m_PrefabInternal: {fileID: 0}
  m_GameObject: {fileID: 0}
  m_Enabled: 1
  m_EditorHideFlags: 0
  m_Script: {fileID: 11500000, guid: c24687fd90d62454294efb2eb789ddfa, type: 3}
  m_Name: Cursor Profile
  m_EditorClassIdentifier: 
  defaultCursor: {fileID: 2800000, guid: 96fce895f44e8b641b76a407c2f623b7, type: 3}
